%YAML 1.1
%TAG !u! tag:unity3d.com,2011:
--- !u!1 &5426779667953180971
GameObject:
  m_ObjectHideFlags: 0
  m_CorrespondingSourceObject: {fileID: 0}
  m_PrefabInstance: {fileID: 0}
  m_PrefabAsset: {fileID: 0}
  serializedVersion: 6
  m_Component:
  - component: {fileID: 6235019170863478}
  - component: {fileID: 3744971676742140040}
  - component: {fileID: 5156590108540703116}
  m_Layer: 31
  m_Name: Layer1
  m_TagString: Untagged
  m_Icon: {fileID: 0}
  m_NavMeshLayer: 0
  m_StaticEditorFlags: 0
  m_IsActive: 1
--- !u!4 &6235019170863478
Transform:
  m_ObjectHideFlags: 0
  m_CorrespondingSourceObject: {fileID: 0}
  m_PrefabInstance: {fileID: 0}
  m_PrefabAsset: {fileID: 0}
  m_GameObject: {fileID: 5426779667953180971}
  m_LocalRotation: {x: -0, y: -0, z: -0, w: 1}
  m_LocalPosition: {x: 0, y: 0, z: 0}
  m_LocalScale: {x: 1, y: 1, z: 1}
  m_Children: []
  m_Father: {fileID: 3287362502406686745}
  m_RootOrder: 0
  m_LocalEulerAnglesHint: {x: 0, y: 0, z: 0}
--- !u!1839735485 &3744971676742140040
Tilemap:
  m_ObjectHideFlags: 0
  m_CorrespondingSourceObject: {fileID: 0}
  m_PrefabInstance: {fileID: 0}
  m_PrefabAsset: {fileID: 0}
  m_GameObject: {fileID: 5426779667953180971}
  m_Enabled: 1
  m_Tiles:
  - first: {x: 5, y: -3, z: 0}
    second:
      m_TileIndex: 32
      m_TileSpriteIndex: 32
      m_TileMatrixIndex: 0
      m_TileColorIndex: 0
      m_ObjectToInstantiate: {fileID: 0}
      m_TileFlags: 1
      m_ColliderType: 1
  - first: {x: -3, y: -2, z: 0}
    second:
      m_TileIndex: 10
      m_TileSpriteIndex: 10
      m_TileMatrixIndex: 0
      m_TileColorIndex: 0
      m_ObjectToInstantiate: {fileID: 0}
      m_TileFlags: 1
      m_ColliderType: 1
  - first: {x: -2, y: -2, z: 0}
    second:
      m_TileIndex: 11
      m_TileSpriteIndex: 11
      m_TileMatrixIndex: 0
      m_TileColorIndex: 0
      m_ObjectToInstantiate: {fileID: 0}
      m_TileFlags: 1
      m_ColliderType: 1
  - first: {x: -1, y: -2, z: 0}
    second:
      m_TileIndex: 6
      m_TileSpriteIndex: 6
      m_TileMatrixIndex: 0
      m_TileColorIndex: 0
      m_ObjectToInstantiate: {fileID: 0}
      m_TileFlags: 1
      m_ColliderType: 1
  - first: {x: 0, y: -2, z: 0}
    second:
      m_TileIndex: 2
      m_TileSpriteIndex: 2
      m_TileMatrixIndex: 0
      m_TileColorIndex: 0
      m_ObjectToInstantiate: {fileID: 0}
      m_TileFlags: 1
      m_ColliderType: 1
  - first: {x: 1, y: -2, z: 0}
    second:
      m_TileIndex: 7
      m_TileSpriteIndex: 7
      m_TileMatrixIndex: 0
      m_TileColorIndex: 0
      m_ObjectToInstantiate: {fileID: 0}
      m_TileFlags: 1
      m_ColliderType: 1
  - first: {x: 3, y: -2, z: 0}
    second:
      m_TileIndex: 34
      m_TileSpriteIndex: 34
      m_TileMatrixIndex: 0
      m_TileColorIndex: 0
      m_ObjectToInstantiate: {fileID: 0}
      m_TileFlags: 1
      m_ColliderType: 1
  - first: {x: 4, y: -2, z: 0}
    second:
      m_TileIndex: 31
      m_TileSpriteIndex: 31
      m_TileMatrixIndex: 0
      m_TileColorIndex: 0
      m_ObjectToInstantiate: {fileID: 0}
      m_TileFlags: 1
      m_ColliderType: 1
  - first: {x: 6, y: -2, z: 0}
    second:
      m_TileIndex: 33
      m_TileSpriteIndex: 33
      m_TileMatrixIndex: 0
      m_TileColorIndex: 0
      m_ObjectToInstantiate: {fileID: 0}
      m_TileFlags: 1
      m_ColliderType: 1
  - first: {x: -3, y: -1, z: 0}
    second:
      m_TileIndex: 12
      m_TileSpriteIndex: 12
      m_TileMatrixIndex: 0
      m_TileColorIndex: 0
      m_ObjectToInstantiate: {fileID: 0}
      m_TileFlags: 1
      m_ColliderType: 1
  - first: {x: -2, y: -1, z: 0}
    second:
      m_TileIndex: 13
      m_TileSpriteIndex: 13
      m_TileMatrixIndex: 0
      m_TileColorIndex: 0
      m_ObjectToInstantiate: {fileID: 0}
      m_TileFlags: 1
      m_ColliderType: 1
  - first: {x: -1, y: -1, z: 0}
    second:
      m_TileIndex: 1
      m_TileSpriteIndex: 1
      m_TileMatrixIndex: 0
      m_TileColorIndex: 0
      m_ObjectToInstantiate: {fileID: 0}
      m_TileFlags: 1
      m_ColliderType: 1
  - first: {x: 0, y: -1, z: 0}
    second:
      m_TileIndex: 0
      m_TileSpriteIndex: 0
      m_TileMatrixIndex: 0
      m_TileColorIndex: 0
      m_ObjectToInstantiate: {fileID: 0}
      m_TileFlags: 1
      m_ColliderType: 1
  - first: {x: 1, y: -1, z: 0}
    second:
      m_TileIndex: 3
      m_TileSpriteIndex: 3
      m_TileMatrixIndex: 0
      m_TileColorIndex: 0
      m_ObjectToInstantiate: {fileID: 0}
      m_TileFlags: 1
      m_ColliderType: 1
  - first: {x: 2, y: -1, z: 0}
    second:
      m_TileIndex: 20
      m_TileSpriteIndex: 20
      m_TileMatrixIndex: 0
      m_TileColorIndex: 0
      m_ObjectToInstantiate: {fileID: 0}
      m_TileFlags: 1
      m_ColliderType: 1
  - first: {x: 3, y: -1, z: 0}
    second:
      m_TileIndex: 5
      m_TileSpriteIndex: 5
      m_TileMatrixIndex: 0
      m_TileColorIndex: 0
      m_ObjectToInstantiate: {fileID: 0}
      m_TileFlags: 1
      m_ColliderType: 1
  - first: {x: 5, y: -1, z: 0}
    second:
      m_TileIndex: 30
      m_TileSpriteIndex: 30
      m_TileMatrixIndex: 0
      m_TileColorIndex: 0
      m_ObjectToInstantiate: {fileID: 0}
      m_TileFlags: 1
      m_ColliderType: 1
  - first: {x: -2, y: 0, z: 0}
    second:
      m_TileIndex: 14
      m_TileSpriteIndex: 14
      m_TileMatrixIndex: 0
      m_TileColorIndex: 0
      m_ObjectToInstantiate: {fileID: 0}
      m_TileFlags: 1
      m_ColliderType: 1
  - first: {x: -1, y: 0, z: 0}
    second:
      m_TileIndex: 8
      m_TileSpriteIndex: 8
      m_TileMatrixIndex: 0
      m_TileColorIndex: 0
      m_ObjectToInstantiate: {fileID: 0}
      m_TileFlags: 1
      m_ColliderType: 1
  - first: {x: 0, y: 0, z: 0}
    second:
      m_TileIndex: 4
      m_TileSpriteIndex: 4
      m_TileMatrixIndex: 0
      m_TileColorIndex: 0
      m_ObjectToInstantiate: {fileID: 0}
      m_TileFlags: 1
      m_ColliderType: 1
  - first: {x: 1, y: 0, z: 0}
    second:
      m_TileIndex: 9
      m_TileSpriteIndex: 9
      m_TileMatrixIndex: 0
      m_TileColorIndex: 0
      m_ObjectToInstantiate: {fileID: 0}
      m_TileFlags: 1
      m_ColliderType: 1
  - first: {x: 2, y: 0, z: 0}
    second:
      m_TileIndex: 19
      m_TileSpriteIndex: 19
      m_TileMatrixIndex: 0
      m_TileColorIndex: 0
      m_ObjectToInstantiate: {fileID: 0}
      m_TileFlags: 1
      m_ColliderType: 1
  - first: {x: -3, y: 1, z: 0}
    second:
      m_TileIndex: 24
      m_TileSpriteIndex: 24
      m_TileMatrixIndex: 0
      m_TileColorIndex: 0
      m_ObjectToInstantiate: {fileID: 0}
      m_TileFlags: 1
      m_ColliderType: 1
  - first: {x: -2, y: 1, z: 0}
    second:
      m_TileIndex: 29
      m_TileSpriteIndex: 29
      m_TileMatrixIndex: 0
      m_TileColorIndex: 0
      m_ObjectToInstantiate: {fileID: 0}
      m_TileFlags: 1
      m_ColliderType: 1
  - first: {x: -1, y: 1, z: 0}
    second:
      m_TileIndex: 23
      m_TileSpriteIndex: 23
      m_TileMatrixIndex: 0
      m_TileColorIndex: 0
      m_ObjectToInstantiate: {fileID: 0}
      m_TileFlags: 1
      m_ColliderType: 1
  - first: {x: 0, y: 1, z: 0}
    second:
      m_TileIndex: 18
      m_TileSpriteIndex: 18
      m_TileMatrixIndex: 0
      m_TileColorIndex: 0
      m_ObjectToInstantiate: {fileID: 0}
      m_TileFlags: 1
      m_ColliderType: 1
  - first: {x: 1, y: 1, z: 0}
    second:
      m_TileIndex: 17
      m_TileSpriteIndex: 17
      m_TileMatrixIndex: 0
      m_TileColorIndex: 0
      m_ObjectToInstantiate: {fileID: 0}
      m_TileFlags: 1
      m_ColliderType: 1
  - first: {x: 2, y: 1, z: 0}
    second:
      m_TileIndex: 15
      m_TileSpriteIndex: 15
      m_TileMatrixIndex: 0
      m_TileColorIndex: 0
      m_ObjectToInstantiate: {fileID: 0}
      m_TileFlags: 1
      m_ColliderType: 1
  - first: {x: 3, y: 1, z: 0}
    second:
      m_TileIndex: 16
      m_TileSpriteIndex: 16
      m_TileMatrixIndex: 0
      m_TileColorIndex: 0
      m_ObjectToInstantiate: {fileID: 0}
      m_TileFlags: 1
      m_ColliderType: 1
  - first: {x: -3, y: 2, z: 0}
    second:
      m_TileIndex: 28
      m_TileSpriteIndex: 28
      m_TileMatrixIndex: 0
      m_TileColorIndex: 0
      m_ObjectToInstantiate: {fileID: 0}
      m_TileFlags: 1
      m_ColliderType: 1
  - first: {x: -2, y: 2, z: 0}
    second:
      m_TileIndex: 15
      m_TileSpriteIndex: 15
      m_TileMatrixIndex: 0
      m_TileColorIndex: 0
      m_ObjectToInstantiate: {fileID: 0}
      m_TileFlags: 1
      m_ColliderType: 1
  - first: {x: -1, y: 2, z: 0}
    second:
      m_TileIndex: 27
      m_TileSpriteIndex: 27
      m_TileMatrixIndex: 0
      m_TileColorIndex: 0
      m_ObjectToInstantiate: {fileID: 0}
      m_TileFlags: 1
      m_ColliderType: 1
  - first: {x: 2, y: 2, z: 0}
    second:
      m_TileIndex: 21
      m_TileSpriteIndex: 21
      m_TileMatrixIndex: 0
      m_TileColorIndex: 0
      m_ObjectToInstantiate: {fileID: 0}
      m_TileFlags: 1
      m_ColliderType: 1
  - first: {x: -3, y: 3, z: 0}
    second:
      m_TileIndex: 25
      m_TileSpriteIndex: 25
      m_TileMatrixIndex: 0
      m_TileColorIndex: 0
      m_ObjectToInstantiate: {fileID: 0}
      m_TileFlags: 1
      m_ColliderType: 1
  - first: {x: -2, y: 3, z: 0}
    second:
      m_TileIndex: 26
      m_TileSpriteIndex: 26
      m_TileMatrixIndex: 0
      m_TileColorIndex: 0
      m_ObjectToInstantiate: {fileID: 0}
      m_TileFlags: 1
      m_ColliderType: 1
  - first: {x: -1, y: 3, z: 0}
    second:
      m_TileIndex: 22
      m_TileSpriteIndex: 22
      m_TileMatrixIndex: 0
      m_TileColorIndex: 0
      m_ObjectToInstantiate: {fileID: 0}
      m_TileFlags: 1
      m_ColliderType: 1
  m_AnimatedTiles: {}
  m_TileAssetArray:
  - m_RefCount: 1
    m_Data: {fileID: 11400000, guid: 57a3111af3dd77148a92ac9f3232fcbb, type: 2}
  - m_RefCount: 1
    m_Data: {fileID: 11400000, guid: ca8079dfaf7596242a1753c3ad658374, type: 2}
  - m_RefCount: 1
    m_Data: {fileID: 11400000, guid: 83131d2792e750e4799753ed7a45e2ba, type: 2}
  - m_RefCount: 1
    m_Data: {fileID: 11400000, guid: 5ac64067c7e8bb94e94e96914097a1cf, type: 2}
  - m_RefCount: 1
    m_Data: {fileID: 11400000, guid: 3eb91148983e351498f5daa7dc54b6f9, type: 2}
  - m_RefCount: 1
    m_Data: {fileID: 11400000, guid: acaceba9f7f0f3444a669d10b6b18c2d, type: 2}
  - m_RefCount: 1
    m_Data: {fileID: 11400000, guid: 580513c46f9ac864bbf55a71975ebe2e, type: 2}
  - m_RefCount: 1
    m_Data: {fileID: 11400000, guid: cf95ca5c5a63e264cb0251f49067d0d8, type: 2}
  - m_RefCount: 1
    m_Data: {fileID: 11400000, guid: 1be3be2bc6a1c3c40a027372feec858a, type: 2}
  - m_RefCount: 1
    m_Data: {fileID: 11400000, guid: 0f7d597fbfee88b4ebe4d31ec89639bf, type: 2}
  - m_RefCount: 1
    m_Data: {fileID: 11400000, guid: f436aed58f0f1994294dcf982a307932, type: 2}
  - m_RefCount: 1
    m_Data: {fileID: 11400000, guid: 0668c10d13cd1544bae48c2a0875c774, type: 2}
  - m_RefCount: 1
    m_Data: {fileID: 11400000, guid: bf72b518b02a0e04daefc76f74f13c42, type: 2}
  - m_RefCount: 1
    m_Data: {fileID: 11400000, guid: 2e3a8548847d80a4da8acc831cb24a65, type: 2}
  - m_RefCount: 1
    m_Data: {fileID: 11400000, guid: dcf29e78798231c42aa54068e80aa8b4, type: 2}
  - m_RefCount: 2
    m_Data: {fileID: 11400000, guid: c7b9944c70d9fca4ca5c9723e95c4003, type: 2}
  - m_RefCount: 1
    m_Data: {fileID: 11400000, guid: 9c7e8302edff23440b28acf337037b10, type: 2}
  - m_RefCount: 1
    m_Data: {fileID: 11400000, guid: 433056b78fff0824593dd671f3ed9f02, type: 2}
  - m_RefCount: 1
    m_Data: {fileID: 11400000, guid: 16036eb23e61b174c8467986ac6a3e9f, type: 2}
  - m_RefCount: 1
    m_Data: {fileID: 11400000, guid: b74d626cdf47dc84399322afd1daf428, type: 2}
  - m_RefCount: 1
    m_Data: {fileID: 11400000, guid: c83b18f3d23a5e740a32bf5976936b17, type: 2}
  - m_RefCount: 1
    m_Data: {fileID: 11400000, guid: 6c203ecfb17cb0a4393535c77c672e3e, type: 2}
  - m_RefCount: 1
    m_Data: {fileID: 11400000, guid: 30690cda1189b574f8c40d27d87cb99c, type: 2}
  - m_RefCount: 1
    m_Data: {fileID: 11400000, guid: f46142b1f62a62c4eba96c79f7032094, type: 2}
  - m_RefCount: 1
    m_Data: {fileID: 11400000, guid: f094598668c60ea4cb766b629570bc30, type: 2}
  - m_RefCount: 1
    m_Data: {fileID: 11400000, guid: a997053a3e26a0f47a770e9afb917606, type: 2}
  - m_RefCount: 1
    m_Data: {fileID: 11400000, guid: faaab7a10a433534ca9e2824381060bf, type: 2}
  - m_RefCount: 1
    m_Data: {fileID: 11400000, guid: 97d53be3f04a93f4b837c2f8292ae985, type: 2}
  - m_RefCount: 1
    m_Data: {fileID: 11400000, guid: 7169436e01bf4204fb07ad25ca055b77, type: 2}
  - m_RefCount: 1
    m_Data: {fileID: 11400000, guid: b86d109680cd1d046955f75ece5d8422, type: 2}
  - m_RefCount: 1
    m_Data: {fileID: 11400000, guid: 807ca6cc1d6bcd941b3ca9e5e0e6d950, type: 2}
  - m_RefCount: 1
    m_Data: {fileID: 11400000, guid: f0b381dc91e5e0148b6cc4381834bf67, type: 2}
  - m_RefCount: 1
    m_Data: {fileID: 11400000, guid: bfb1037eddb704842846a78fad7bb960, type: 2}
  - m_RefCount: 1
    m_Data: {fileID: 11400000, guid: ada5c25cf1e0bf94cb124578bf4f4430, type: 2}
  - m_RefCount: 1
    m_Data: {fileID: 11400000, guid: 0b0d0cc259cd5b449aba241c320e1174, type: 2}
  m_TileSpriteArray:
  - m_RefCount: 1
    m_Data: {fileID: 21300000, guid: d78dd734a1acfef47a0bb409ab9152c5, type: 3}
  - m_RefCount: 1
    m_Data: {fileID: 21300000, guid: 2a26510717d88d743a5c09e45f1136cf, type: 3}
  - m_RefCount: 1
    m_Data: {fileID: 21300000, guid: bc3b7ac7a46488345aead7886527c2f9, type: 3}
  - m_RefCount: 1
    m_Data: {fileID: 21300000, guid: ddbf7d78e46e63044831192a3af6b5af, type: 3}
  - m_RefCount: 1
    m_Data: {fileID: 21300000, guid: c30f98dbb217ca44aa04659ac6fb3337, type: 3}
  - m_RefCount: 1
    m_Data: {fileID: 21300000, guid: bca6b2834b8cd1945bff709d49f97d65, type: 3}
  - m_RefCount: 1
    m_Data: {fileID: 21300000, guid: d9378e19c5c33734c8377ee9418f3a6b, type: 3}
  - m_RefCount: 1
    m_Data: {fileID: 21300000, guid: 4254023006c1dce418d0e04854a55d63, type: 3}
  - m_RefCount: 1
    m_Data: {fileID: 21300000, guid: b3859757dff824f4eb9c34228f0aafc5, type: 3}
  - m_RefCount: 1
    m_Data: {fileID: 21300000, guid: fcad8b2bf6841674985dfb47b6fe9702, type: 3}
  - m_RefCount: 1
    m_Data: {fileID: 21300000, guid: 41e2974cdd87a7b46bfb8ce4b903f7ed, type: 3}
  - m_RefCount: 1
    m_Data: {fileID: 21300000, guid: de7cbb400496223409f4e34b7fad9b2b, type: 3}
  - m_RefCount: 1
    m_Data: {fileID: 21300000, guid: 1fa72f2e3d608c149adf1fe998e8b8e4, type: 3}
  - m_RefCount: 1
    m_Data: {fileID: 21300000, guid: 8022668e394ba5946adb39a5cd22ba1f, type: 3}
  - m_RefCount: 1
    m_Data: {fileID: 21300000, guid: 2ec4bf5f27a9ec64496f25a105068a35, type: 3}
  - m_RefCount: 2
    m_Data: {fileID: 21300000, guid: 269c6986d1c75e0458f95d9cc8a5ac05, type: 3}
  - m_RefCount: 1
    m_Data: {fileID: 21300000, guid: 7b9d3256d3e720c4e918092283e35723, type: 3}
  - m_RefCount: 1
    m_Data: {fileID: 21300000, guid: 806f56698803c964ba24c6d22b867032, type: 3}
  - m_RefCount: 1
    m_Data: {fileID: 21300000, guid: 4a4c9dde2ec6ed741938c1cad83cc97d, type: 3}
  - m_RefCount: 1
    m_Data: {fileID: 21300000, guid: 4005f49b94fe7a14aa98d50ab6fde130, type: 3}
  - m_RefCount: 1
    m_Data: {fileID: 21300000, guid: 39beb386655da8440ab1a5c06c85b563, type: 3}
  - m_RefCount: 1
    m_Data: {fileID: 21300000, guid: 44e2a6fca1d2dae4594886a12fb3c589, type: 3}
  - m_RefCount: 1
    m_Data: {fileID: 21300000, guid: 38db648a10e448a489d93cf28d72766f, type: 3}
  - m_RefCount: 1
    m_Data: {fileID: 21300000, guid: e21f4457f97b2f0489014898009c5967, type: 3}
  - m_RefCount: 1
    m_Data: {fileID: 21300000, guid: c62871dc2dc2a2c40a35f7dffa822412, type: 3}
  - m_RefCount: 1
    m_Data: {fileID: 21300000, guid: ef4bb6b88530f29479f58a78212e898c, type: 3}
  - m_RefCount: 1
    m_Data: {fileID: 21300000, guid: 72e86d25469734549a63e72c4b329df5, type: 3}
  - m_RefCount: 1
    m_Data: {fileID: 21300000, guid: 27289d452014bc440a375917cd682399, type: 3}
  - m_RefCount: 1
    m_Data: {fileID: 21300000, guid: 562c3b0f6af36b84bbf0c34f139fe7cc, type: 3}
  - m_RefCount: 1
    m_Data: {fileID: 21300000, guid: 97ead32b473de424089e1f65b6af639f, type: 3}
  - m_RefCount: 1
    m_Data: {fileID: 21300000, guid: 1bed394b170004449ab8c2072f028a3e, type: 3}
  - m_RefCount: 1
    m_Data: {fileID: 21300000, guid: 6224652e5acce9749b6ffa3ce5e67f62, type: 3}
  - m_RefCount: 1
    m_Data: {fileID: 21300000, guid: a85be83873a5efe438bc87a1890d0209, type: 3}
  - m_RefCount: 1
    m_Data: {fileID: 21300000, guid: df458513c18f8d143b3c9899e3739071, type: 3}
  - m_RefCount: 1
    m_Data: {fileID: 21300000, guid: 1a424ad17c18bd740973aaa703ffda47, type: 3}
  m_TileMatrixArray:
  - m_RefCount: 36
    m_Data:
      e00: 1
      e01: 0
      e02: 0
      e03: 0
      e10: 0
      e11: 1
      e12: 0
      e13: 0
      e20: 0
      e21: 0
      e22: 1
      e23: 0
      e30: 0
      e31: 0
      e32: 0
      e33: 1
  m_TileColorArray:
  - m_RefCount: 36
    m_Data: {r: 1, g: 1, b: 1, a: 1}
  m_AnimationFrameRate: 1
  m_Color: {r: 1, g: 1, b: 1, a: 1}
  m_Origin: {x: -3, y: -3, z: 0}
  m_Size: {x: 10, y: 7, z: 1}
  m_TileAnchor: {x: 0.5, y: 0.5, z: 0}
  m_TileOrientation: 0
  m_TileOrientationMatrix:
    e00: 1
    e01: 0
    e02: 0
    e03: 0
    e10: 0
    e11: 1
    e12: 0
    e13: 0
    e20: 0
    e21: 0
    e22: 1
    e23: 0
    e30: 0
    e31: 0
    e32: 0
    e33: 1
--- !u!483693784 &5156590108540703116
TilemapRenderer:
  m_ObjectHideFlags: 0
  m_CorrespondingSourceObject: {fileID: 0}
  m_PrefabInstance: {fileID: 0}
  m_PrefabAsset: {fileID: 0}
  m_GameObject: {fileID: 5426779667953180971}
  m_Enabled: 0
  m_CastShadows: 0
  m_ReceiveShadows: 0
  m_DynamicOccludee: 0
  m_MotionVectors: 1
  m_LightProbeUsage: 0
  m_ReflectionProbeUsage: 0
  m_RenderingLayerMask: 1
  m_RendererPriority: 0
  m_Materials:
  - {fileID: 10754, guid: 0000000000000000f000000000000000, type: 0}
  m_StaticBatchInfo:
    firstSubMesh: 0
    subMeshCount: 0
  m_StaticBatchRoot: {fileID: 0}
  m_ProbeAnchor: {fileID: 0}
  m_LightProbeVolumeOverride: {fileID: 0}
  m_ScaleInLightmap: 1
  m_PreserveUVs: 0
  m_IgnoreNormalsForChartDetection: 0
  m_ImportantGI: 0
  m_StitchLightmapSeams: 0
  m_SelectedEditorRenderState: 0
  m_MinimumChartSize: 4
  m_AutoUVMaxDistance: 0.5
  m_AutoUVMaxAngle: 89
  m_LightmapParameters: {fileID: 0}
  m_SortingLayerID: 0
  m_SortingLayer: 0
  m_SortingOrder: 0
  m_ChunkSize: {x: 32, y: 32, z: 32}
  m_ChunkCullingBounds: {x: 0, y: 0, z: 0}
  m_MaxChunkCount: 16
  m_MaxFrameAge: 16
  m_SortOrder: 0
  m_Mode: 0
  m_DetectChunkCullingBounds: 0
  m_MaskInteraction: 0
--- !u!1 &8135953136643693065
GameObject:
  m_ObjectHideFlags: 0
  m_CorrespondingSourceObject: {fileID: 0}
  m_PrefabInstance: {fileID: 0}
  m_PrefabAsset: {fileID: 0}
  serializedVersion: 6
  m_Component:
  - component: {fileID: 3287362502406686745}
  - component: {fileID: 7965750354055993204}
  m_Layer: 31
  m_Name: BlackRock
  m_TagString: Untagged
  m_Icon: {fileID: 0}
  m_NavMeshLayer: 0
  m_StaticEditorFlags: 0
  m_IsActive: 1
--- !u!4 &3287362502406686745
Transform:
  m_ObjectHideFlags: 0
  m_CorrespondingSourceObject: {fileID: 0}
  m_PrefabInstance: {fileID: 0}
  m_PrefabAsset: {fileID: 0}
  m_GameObject: {fileID: 8135953136643693065}
  m_LocalRotation: {x: 0, y: 0, z: 0, w: 1}
  m_LocalPosition: {x: 0, y: 0, z: 0}
  m_LocalScale: {x: 1, y: 1, z: 1}
  m_Children:
  - {fileID: 6235019170863478}
  m_Father: {fileID: 0}
  m_RootOrder: 0
  m_LocalEulerAnglesHint: {x: 0, y: 0, z: 0}
--- !u!156049354 &7965750354055993204
Grid:
  m_ObjectHideFlags: 0
  m_CorrespondingSourceObject: {fileID: 0}
  m_PrefabInstance: {fileID: 0}
  m_PrefabAsset: {fileID: 0}
  m_GameObject: {fileID: 8135953136643693065}
  m_Enabled: 1
  m_CellSize: {x: 1, y: 1, z: 0}
  m_CellGap: {x: 0, y: 0, z: 0}
  m_CellLayout: 0
  m_CellSwizzle: 0
--- !u!114 &114475391452860124
MonoBehaviour:
  m_ObjectHideFlags: 0
  m_CorrespondingSourceObject: {fileID: 0}
  m_PrefabInstance: {fileID: 0}
  m_PrefabAsset: {fileID: 0}
  m_GameObject: {fileID: 0}
  m_Enabled: 1
  m_EditorHideFlags: 0
  m_Script: {fileID: 12395, guid: 0000000000000000e000000000000000, type: 0}
  m_Name: Palette Settings
  m_EditorClassIdentifier: 
  cellSizing: 0
